#include <windows.h>
#include <gl/GL.h>
#include <gl/GLU.h>

#define WIN_WIDTH 800
#define WIN_HEIGHT 600

#pragma comment(lib,"opengl32.lib")
#pragma comment(lib,"glu32.lib")

LRESULT CALLBACK WndProc(HWND, UINT, WPARAM, LPARAM);

HWND ghwnd = NULL;
HDC ghdc = NULL;
HGLRC ghrc = NULL;

//
GLUquadric *quadric = NULL;

DWORD dwStyle;
WINDOWPLACEMENT wpPrev = { sizeof(WINDOWPLACEMENT) };

bool gbActiveWindow = false;
bool gbEscapeKeyIsPressed = false;
bool gbFullscreen = false;
bool gbLight = false;
int gbXVariable = 1;
int gbYVariable = 0;
int gbZVariable = 0;

GLfloat light_model_ambient[] = { 0.2f,0.2f,0.2f,0.0f };
GLfloat light_model_local_viewer[] = { 0.0f };


//variables for light 0 //red
GLfloat light0_ambient[] = { 0.0f,0.0f,0.0f,0.0f };
GLfloat light0_diffuse[] = { 1.0f,1.0f,1.0f,0.0f };
GLfloat light0_specular[] = { 1.0f,1.0f,1.0f,0.0f };
GLfloat light0_position[] = { 0.0f,0.0f,0.0f,0.0f }; // as per instruction

													 //material
													 // first row 1
GLfloat material_ambient[] = { 0.0215f,0.1745f,0.0215f,1.0f };
GLfloat material_diffuse[] = { 0.07568f,0.61424f,0.07568f,1.0f };
GLfloat material_specular[] = { 0.633f,0.727811f,0.633f,1.0f };
GLfloat material_shine[] = { 0.6 * 128 };

//2
GLfloat material2_ambient[] = { 0.135,0.2225,0.1575,1.0f };
GLfloat material2_diffuse[] = { 0.54,0.89,0.63,1.0f };
GLfloat material2_specular[] = { 0.316228,0.316228,0.316228,1.0f
};
GLfloat material2_shine[] = { 0.1 * 128 };

//3
GLfloat material3_ambient[] = {
	0.05375,0.05,0.06625,1.0f };
GLfloat material3_diffuse[] = { 0.18275,0.17,0.22525,1.0f };
GLfloat material3_specular[] = { 0.332741,0.328634,0.346435,1.0f };
GLfloat material3_shine[] = { 0.3 * 128 };
//4
GLfloat material4_ambient[] = { 0.25,0.20725,0.20725,1.0f };
GLfloat material4_diffuse[] = { 1.0,0.829,0.829,1.0f };
GLfloat material4_specular[] = { 0.296648,0.296648,0.296648,1.0f };
GLfloat material4_shine[] = { 0.088 * 128 };

//5
GLfloat material5_ambient[] = { 0.1745,0.01175,0.01175,1.0f };
GLfloat material5_diffuse[] = { 0.61424,0.04136,0.04136,1.0f };
GLfloat material5_specular[] = { 0.727811,0.626959,0.626959,1.0f };
GLfloat material5_shine[] = { 0.6 * 128 };

//6
GLfloat material6_ambient[] = { 0.1,0.18725,0.1745,1.0f };
GLfloat material6_diffuse[] = { 0.396,0.74151,0.69102,1.0f };
GLfloat material6_specular[] = { 0.297254,0.30829,0.306678,1.0f };
GLfloat material6_shine[] = { 0.1 * 128 };


//   7
GLfloat material7_ambient[] = { 0.329412,0.223529,0.027451,1.0f };
GLfloat material7_diffuse[] = { 0.780392,0.568627,0.113725,1.0f };
GLfloat material7_specular[] = { 0.992157,0.941176,0.807843,1.0f };
GLfloat material7_shine[] = { 0.21794872 * 128 };


// 8
GLfloat material8_ambient[] = { 0.2125,0.1275,0.054,1.0f };
GLfloat material8_diffuse[] = { 0.714,0.4284,0.18144,1.0f };
GLfloat material8_specular[] = { 0.393548,0.271906,0.166721,1.0f };
GLfloat material8_shine[] = { 0.2 * 128 };

//9
GLfloat material9_ambient[] = { 0.25,0.25,0.25,1.0f };
GLfloat material9_diffuse[] = { 0.4,0.4,0.4,1.0f };
GLfloat material9_specular[] = { 0.774597,0.774597,0.774597,1.0f };
GLfloat material9_shine[] = { 0.6 * 128 };

GLfloat material10_ambient[] = { 0.19125,0.0735,0.0225,1.0f };
GLfloat material10_diffuse[] = { 0.7038,0.27048,0.0828,1.0f };
GLfloat material10_specular[] = { 0.256777,0.137622,0.086014,1.0f };
GLfloat material10_shine[] = { 0.1 * 128 };
//11
GLfloat material11_ambient[] = { 0.24725,0.1995,0.0745,1.0f };
GLfloat material11_diffuse[] = { 0.75164,0.60648,0.22648,1.0f };
GLfloat material11_specular[] = { 0.628281,0.555802,0.366065,1.0f };
GLfloat material11_shine[] = { 0.4 * 128 };


GLfloat material12_ambient[] = { 0.19225,0.19225,0.19225,1.0f };
GLfloat material12_diffuse[] = { 0.50754,0.50754,0.50754,1.0f };
GLfloat material12_specular[] = { 0.508273,0.508273,0.508273,1.0f };
GLfloat material12_shine[] = { 0.4 * 128 };
// first row 13
GLfloat material13_ambient[] = { 0.0,0.0,0.0,1.0f };
GLfloat material13_diffuse[] = { 0.01,0.01,0.01,1.0f };
GLfloat material13_specular[] = { 0.50,0.50,0.50,1.0f };
GLfloat material13_shine[] = { 0.25 * 128 };


GLfloat material14_ambient[] = { 0.0,0.1,0.06,1.0f };
GLfloat material14_diffuse[] = { 0.0,0.50980392,0.50980392,1.0f };
GLfloat material14_specular[] = { 0.50196078,0.50196078,0.50196078,1.0f };
GLfloat material14_shine[] = { 0.25 * 128 };

//15
GLfloat material15_ambient[] = { 0.0,0.0,0.0,1.0f };
GLfloat material15_diffuse[] = { 0.1,0.35,0.1,1.0f };
GLfloat material15_specular[] = { 0.45,0.55,0.45,1.0f };
GLfloat material15_shine[] = { 0.25 * 128 };

GLfloat material16_ambient[] = { 0.0,0.0,0.0,1.0f };
GLfloat material16_diffuse[] = { 0.5,0.0,0.0,1.0f };
GLfloat material16_specular[] = { 0.7,0.6,0.6,1.0f };
GLfloat material16_shine[] = { 0.25 * 128 };
//17
GLfloat material17_ambient[] = { 0.0,0.0,0.0,1.0f };
GLfloat material17_diffuse[] = { 0.55,0.55,0.55,1.0f };
GLfloat material17_specular[] = { 0.70,0.70,0.70,1.0f };
GLfloat material17_shine[] = { 0.25 * 128 };

GLfloat material18_ambient[] = { 0.0,0.0,0.0,1.0f };
GLfloat material18_diffuse[] = { 0.5,0.5,0.0,1.0f };
GLfloat material18_specular[] = { 0.60,0.60,0.50,1.0f };
GLfloat material18_shine[] = { 0.25 * 128 };

//first row 4th: 19
GLfloat material19_ambient[] = { 0.02,0.02,0.02,1.0f };
GLfloat material19_diffuse[] = { 0.01,0.01,0.01,1.0f };
GLfloat material19_specular[] = { 0.4,0.4,0.4,1.0f };
GLfloat material19_shine[] = { 0.078125 * 128 };


GLfloat material20_ambient[] = { 0.0,0.05,0.05,1.0f };
GLfloat material20_diffuse[] = { 0.4,0.5,0.5,1.0f };
GLfloat material20_specular[] = { 0.04,0.7,0.7,1.0f };
GLfloat material20_shine[] = { 0.078125 * 128 };

//21
GLfloat material21_ambient[] = { 0.0,0.05,0.0,1.0f };
GLfloat material21_diffuse[] = { 0.4,0.5,0.4,1.0f };
GLfloat material21_specular[] = { 0.04,0.7,0.04,1.0f };
GLfloat material21_shine[] = { 0.078125 * 128 };

GLfloat material22_ambient[] = { 0.05,0.0,0.0,1.0f };
GLfloat material22_diffuse[] = { 0.5,0.4,0.4,1.0f };
GLfloat material22_specular[] = { 0.7,0.04,0.04,1.0f };
GLfloat material22_shine[] = { 0.078125 * 128 };

// 23
GLfloat material23_ambient[] = { 0.05,0.05,0.05,1.0f };
GLfloat material23_diffuse[] = { 0.5,0.5,0.5,1.0f };
GLfloat material23_specular[] = { 0.7,0.7,0.7,1.0f };
GLfloat material23_shine[] = { 0.078125 * 128 };
//24
GLfloat material24_ambient[] = { 0.05,0.05,0.0,1.0f };
GLfloat material24_diffuse[] = { 0.5,0.5,0.4,1.0f };
GLfloat material24_specular[] = { 0.7,0.7,0.04,1.0f };
GLfloat material24_shine[] = { 0.078125 * 128 };

float angleForGlobalLight = 0.0f;


int WINAPI WinMain(HINSTANCE hInstance, HINSTANCE hPrevInstance, LPSTR lpszCmdLine, int iCmdShow)
{

	void initialize(void);
	void uninitialize(void);
	void update(void);
	void display(void); //prototype for disp aas removed from wndproc

						//variable declaration
	WNDCLASSEX wndclass;
	HWND hwnd;
	MSG msg;
	TCHAR szClassName[] = TEXT("RTROGL");
	bool bDone = false;


	wndclass.cbSize = sizeof(WNDCLASSEX);
	wndclass.style = CS_HREDRAW | CS_VREDRAW | CS_OWNDC;
	wndclass.cbClsExtra = 0;
	wndclass.cbWndExtra = 0;
	wndclass.hInstance = hInstance;
	wndclass.hbrBackground = (HBRUSH)GetStockObject(BLACK_BRUSH);
	wndclass.hIcon = LoadIcon(NULL, IDI_APPLICATION);
	wndclass.hCursor = LoadCursor(NULL, IDC_ARROW);
	wndclass.hIconSm = LoadIcon(NULL, IDI_APPLICATION);
	wndclass.lpfnWndProc = WndProc;
	wndclass.lpszClassName = szClassName;
	wndclass.lpszMenuName = NULL;

	RegisterClassEx(&wndclass);
	//Create Window
	hwnd = CreateWindowEx(WS_EX_APPWINDOW,
		szClassName,
		TEXT("OpenGL Native Window + Triangle + gluPerspective Projection"),
		WS_OVERLAPPEDWINDOW | WS_CLIPCHILDREN | WS_CLIPSIBLINGS | WS_VISIBLE,
		0,
		0,
		WIN_WIDTH,
		WIN_HEIGHT,
		NULL,
		NULL,
		hInstance,
		NULL);

	ghwnd = hwnd;

	//initialize
	initialize();

	ShowWindow(hwnd, SW_SHOW);
	SetForegroundWindow(hwnd);
	SetFocus(hwnd);

	//Message Loop
	while (bDone == false)
	{
		if (PeekMessage(&msg, NULL, 0, 0, PM_REMOVE))
		{
			if (msg.message == WM_QUIT)
				bDone = true;
			else
			{
				TranslateMessage(&msg);
				DispatchMessage(&msg);
			}
		}
		else
		{
			if (gbActiveWindow == true)
			{
				if (gbEscapeKeyIsPressed == true)
					bDone = true;
			}
			update();
			display();//call to display in game loop
		}
	}

	uninitialize();
	return((int)msg.wParam);
}

//WndProc()
LRESULT CALLBACK WndProc(HWND hwnd, UINT iMsg, WPARAM wParam, LPARAM lParam)
{
	void resize(int, int);
	void ToggleFullscreen(void);
	void uninitialize(void);
	switch (iMsg)
	{
	case WM_ACTIVATE:
		if (HIWORD(wParam) == 0)
			gbActiveWindow = true;
		else
			gbActiveWindow = false;
		break;

	case WM_SIZE:
		resize(LOWORD(lParam), HIWORD(lParam));
		break;
	case WM_KEYDOWN:
		switch (wParam)
		{
		case VK_ESCAPE:
			gbEscapeKeyIsPressed = true;
			break;
		case 0x46: //for 'f' or 'F'
			if (gbFullscreen == false)
			{
				ToggleFullscreen();
				gbFullscreen = true;
			}
			else
			{
				ToggleFullscreen();
				gbFullscreen = false;
			}
			break;
		case 0x4c: //for l
			if (gbLight == false)
			{
				gbLight = true;
				glEnable(GL_LIGHTING);
				glEnable(GL_LIGHT0);

			}
			else
			{
				gbLight = false;
				glDisable(GL_LIGHTING);
				glDisable(GL_LIGHT0);
			}
			break;

		case 0x58:// x rotation
			if (gbXVariable == 1)
			{
				gbXVariable = 1;
				gbYVariable = 0;
				gbZVariable = 0;
				gbLight = true;
				glEnable(GL_LIGHTING);
				glEnable(GL_LIGHT0);
			}
			else
			{
				gbXVariable = 1;
				gbYVariable = 0;
				gbZVariable = 0;
			//	gbLight = false;
				//glDisable(GL_LIGHT0);
				//glDisable(GL_LIGHTING);
			}
			break;

		case 0x59:// y rotation
			if (gbYVariable == 1)
			{
				gbYVariable = 1;
				gbXVariable = 0;
				gbZVariable = 0;
				gbLight = true;
				glEnable(GL_LIGHTING);
				glEnable(GL_LIGHT0);
			}
			else
			{
				gbYVariable = 1;
				gbXVariable = 0;
				gbZVariable = 0;
		//		gbLight = false;
				//glDisable(GL_LIGHT0);
				//glDisable(GL_LIGHTING);
			}
			break;

		case 0x5A:// z rotation
			if (gbZVariable == 1)
			{
				gbZVariable = 1;
				gbYVariable = 0;
				gbXVariable = 0;
				gbLight = true;
				glEnable(GL_LIGHT0);
				glEnable(GL_LIGHTING);
			}
			else
			{
				gbZVariable = 1;
				gbYVariable = 0;
				gbXVariable = 0;
	//			gbLight = false;
				//glDisable(GL_LIGHT0);
				//glDisable(GL_LIGHTING);
			}
			break;

		default:
			break;
		}
		break;
	case WM_LBUTTONDOWN:
		break;
	case WM_DESTROY:
		PostQuitMessage(0);
		break;
	default:
		break;
	}
	return(DefWindowProc(hwnd, iMsg, wParam, lParam));
}

void ToggleFullscreen(void)
{

	MONITORINFO mi = { sizeof(MONITORINFO) };
	if (gbFullscreen == false)
	{
		dwStyle = GetWindowLong(ghwnd, GWL_STYLE);
		if (dwStyle & WS_OVERLAPPEDWINDOW)
		{

			if (GetWindowPlacement(ghwnd, &wpPrev) && GetMonitorInfo(MonitorFromWindow(ghwnd, MONITORINFOF_PRIMARY), &mi))
			{
				SetWindowLong(ghwnd, GWL_STYLE, dwStyle & ~WS_OVERLAPPEDWINDOW);
				SetWindowPos(ghwnd, HWND_TOP, mi.rcMonitor.left, mi.rcMonitor.top, mi.rcMonitor.right - mi.rcMonitor.left, mi.rcMonitor.bottom - mi.rcMonitor.top, SWP_NOZORDER | SWP_FRAMECHANGED);
			}
		}
		ShowCursor(FALSE);
	}

	else
	{
		SetWindowLong(ghwnd, GWL_STYLE, dwStyle | WS_OVERLAPPEDWINDOW);
		SetWindowPlacement(ghwnd, &wpPrev);
		SetWindowPos(ghwnd, HWND_TOP, 0, 0, 0, 0, SWP_NOMOVE | SWP_NOSIZE | SWP_NOOWNERZORDER | SWP_NOZORDER | SWP_FRAMECHANGED);

		ShowCursor(TRUE);
	}
}

void initialize(void)
{
	void resize(int, int);
	PIXELFORMATDESCRIPTOR pfd;
	int iPixelFormatIndex;
	quadric = gluNewQuadric();

	//code
	ZeroMemory(&pfd, sizeof(PIXELFORMATDESCRIPTOR));

	//Initialization of structure 'PIXELFORMATDESCRIPTOR'
	pfd.nSize = sizeof(PIXELFORMATDESCRIPTOR);
	pfd.nVersion = 1;
	pfd.dwFlags = PFD_DRAW_TO_WINDOW | PFD_SUPPORT_OPENGL | PFD_DOUBLEBUFFER;
	pfd.iPixelType = PFD_TYPE_RGBA;
	pfd.cColorBits = 32;
	pfd.cRedBits = 8;
	pfd.cGreenBits = 8;
	pfd.cBlueBits = 8;
	pfd.cAlphaBits = 8;

	ghdc = GetDC(ghwnd);

	iPixelFormatIndex = ChoosePixelFormat(ghdc, &pfd);
	if (iPixelFormatIndex == 0)
	{
		ReleaseDC(ghwnd, ghdc);
		ghdc = NULL;
	}

	if (SetPixelFormat(ghdc, iPixelFormatIndex, &pfd) == FALSE)
	{
		ReleaseDC(ghwnd, ghdc);
		ghdc = NULL;
	}

	ghrc = wglCreateContext(ghdc);
	if (ghrc == NULL)
	{
		ReleaseDC(ghwnd, ghdc);
		ghdc = NULL;
	}

	if (wglMakeCurrent(ghdc, ghrc) == FALSE)
	{
		wglDeleteContext(ghrc);
		ghrc = NULL;
		ReleaseDC(ghwnd, ghdc);
		ghdc = NULL;
	}

	glClearColor(0.25f, 0.25f, 0.25f, 0.0f);
	glClearDepth(1.0f);

	glEnable(GL_DEPTH_TEST);
	glDepthFunc(GL_LEQUAL);

	glEnable(GL_AUTO_NORMAL);
	glEnable(GL_NORMALIZE);
	glLightModelfv(GL_LIGHT_MODEL_AMBIENT, light_model_ambient);
	glLightModelfv(GL_LIGHT_MODEL_LOCAL_VIEWER, light_model_local_viewer);

	//glEnable(GL_LIGHTING);
	//	glEnable(GL_LIGHT0);
	glLightfv(GL_LIGHT0, GL_AMBIENT, light0_ambient);
	glLightfv(GL_LIGHT0, GL_DIFFUSE, light0_diffuse);
	glLightfv(GL_LIGHT0, GL_SPECULAR, light0_specular);
	//glLightfv(GL_LIGHT0, GL_POSITION, light0_position);


	resize(WIN_WIDTH, WIN_HEIGHT);
}

void display(void)
{
	glClear(GL_COLOR_BUFFER_BIT | GL_DEPTH_BUFFER_BIT);

	glMatrixMode(GL_MODELVIEW);
	glLoadIdentity();
	if (gbXVariable == 1)
	{
		//
		gluLookAt(0.0f, 0.0f, 1.0f, 0.0f, 0.0f, 0.0f, 0.0f, 1.0f, 0.0f);
		//
		glLoadIdentity();
			glRotatef(angleForGlobalLight, 1.0f, 0.0f, 0.0f);
			light0_position[1] = angleForGlobalLight;
			glLightfv(GL_LIGHT0, GL_POSITION, light0_position);
		//
		//row 1: 1
	//	
		glLoadIdentity();
		glTranslatef(-3.0f, 3.0f, -10.0f);
		glMaterialfv(GL_FRONT, GL_AMBIENT, material_ambient);
		glMaterialfv(GL_FRONT, GL_DIFFUSE, material_diffuse);
		glMaterialfv(GL_FRONT, GL_SPECULAR, material_specular);
		glMaterialfv(GL_FRONT, GL_SHININESS, material_shine);

		glPolygonMode(GL_FRONT_AND_BACK, GL_FILL);
		gluSphere(quadric, 0.45, 30, 30);
	//	

//		
	//	glMatrixMode(GL_MODELVIEW);
		glLoadIdentity();
		glTranslatef(-3.0f, 1.8f, -10.0f);
		glMaterialfv(GL_FRONT, GL_AMBIENT, material2_ambient);
		glMaterialfv(GL_FRONT, GL_DIFFUSE, material2_diffuse);
		glMaterialfv(GL_FRONT, GL_SPECULAR, material2_specular);
		glMaterialfv(GL_FRONT, GL_SHININESS, material2_shine);

		glPolygonMode(GL_FRONT_AND_BACK, GL_FILL);
		gluSphere(quadric, 0.45, 30, 30);
//		

//		
		//glMatrixMode(GL_MODELVIEW);
		glLoadIdentity();

		glTranslatef(-3.0f, 0.6f, -10.0f);
		glMaterialfv(GL_FRONT, GL_AMBIENT, material3_ambient);
		glMaterialfv(GL_FRONT, GL_DIFFUSE, material3_diffuse);
		glMaterialfv(GL_FRONT, GL_SPECULAR, material3_specular);
		glMaterialfv(GL_FRONT, GL_SHININESS, material3_shine);

		glPolygonMode(GL_FRONT_AND_BACK, GL_FILL);
		gluSphere(quadric, 0.45, 30, 30);
		//

		//
		//glMatrixMode(GL_MODELVIEW);
		glLoadIdentity();

		glTranslatef(-3.0f, -0.8f, -10.0f);
		glMaterialfv(GL_FRONT, GL_AMBIENT, material4_ambient);
		glMaterialfv(GL_FRONT, GL_DIFFUSE, material4_diffuse);
		glMaterialfv(GL_FRONT, GL_SPECULAR, material4_specular);
		glMaterialfv(GL_FRONT, GL_SHININESS, material4_shine);


		glPolygonMode(GL_FRONT_AND_BACK, GL_FILL);
		gluSphere(quadric, 0.45, 30, 30);
		//

		//
		//glMatrixMode(GL_MODELVIEW);
		glLoadIdentity();

		glTranslatef(-3.0f, -2.0f, -10.0f);
		glMaterialfv(GL_FRONT, GL_AMBIENT, material5_ambient);
		glMaterialfv(GL_FRONT, GL_DIFFUSE, material5_diffuse);
		glMaterialfv(GL_FRONT, GL_SPECULAR, material5_specular);
		glMaterialfv(GL_FRONT, GL_SHININESS, material5_shine);


		glPolygonMode(GL_FRONT_AND_BACK, GL_FILL);
		gluSphere(quadric, 0.45, 30, 30);
		//

		//
		//glMatrixMode(GL_MODELVIEW);
		glLoadIdentity();

		glTranslatef(-3.0f, -3.2f, -10.0f);

		glMaterialfv(GL_FRONT, GL_AMBIENT, material6_ambient);
		glMaterialfv(GL_FRONT, GL_DIFFUSE, material6_diffuse);
		glMaterialfv(GL_FRONT, GL_SPECULAR, material6_specular);
		glMaterialfv(GL_FRONT, GL_SHININESS, material6_shine);

		glPolygonMode(GL_FRONT_AND_BACK, GL_FILL);
		gluSphere(quadric, 0.45, 30, 30);
		//

		////row 1: 2
		//
		//glMatrixMode(GL_MODELVIEW);
		glLoadIdentity();

		glTranslatef(-1.0f, 3.0f, -10.0f);
		glMaterialfv(GL_FRONT, GL_AMBIENT, material7_ambient);
		glMaterialfv(GL_FRONT, GL_DIFFUSE, material7_diffuse);
		glMaterialfv(GL_FRONT, GL_SPECULAR, material7_specular);
		glMaterialfv(GL_FRONT, GL_SHININESS, material7_shine);


		glPolygonMode(GL_FRONT_AND_BACK, GL_FILL);
		gluSphere(quadric, 0.45, 30, 30);
		//

		//
		//glMatrixMode(GL_MODELVIEW);
		glLoadIdentity();

		glTranslatef(-1.0f, 1.8f, -10.0f);

		glMaterialfv(GL_FRONT, GL_AMBIENT, material8_ambient);
		glMaterialfv(GL_FRONT, GL_DIFFUSE, material8_diffuse);
		glMaterialfv(GL_FRONT, GL_SPECULAR, material8_specular);
		glMaterialfv(GL_FRONT, GL_SHININESS, material8_shine);


		glPolygonMode(GL_FRONT_AND_BACK, GL_FILL);
		gluSphere(quadric, 0.45, 30, 30);
		//

		//
		//glMatrixMode(GL_MODELVIEW);
		glLoadIdentity();

		glTranslatef(-1.0f, 0.6f, -10.0f);

		glMaterialfv(GL_FRONT, GL_AMBIENT, material9_ambient);
		glMaterialfv(GL_FRONT, GL_DIFFUSE, material9_diffuse);
		glMaterialfv(GL_FRONT, GL_SPECULAR, material9_specular);
		glMaterialfv(GL_FRONT, GL_SHININESS, material9_shine);


		glPolygonMode(GL_FRONT_AND_BACK, GL_FILL);
		gluSphere(quadric, 0.45, 30, 30);
		//

		//
		//glMatrixMode(GL_MODELVIEW);
		glLoadIdentity();

		glTranslatef(-1.0f, -0.8f, -10.0f);

		glMaterialfv(GL_FRONT, GL_AMBIENT, material10_ambient);
		glMaterialfv(GL_FRONT, GL_DIFFUSE, material10_diffuse);
		glMaterialfv(GL_FRONT, GL_SPECULAR, material10_specular);
		glMaterialfv(GL_FRONT, GL_SHININESS, material10_shine);



		glPolygonMode(GL_FRONT_AND_BACK, GL_FILL);
		gluSphere(quadric, 0.45, 30, 30);
		//

		//
		//glMatrixMode(GL_MODELVIEW);
		glLoadIdentity();

		glTranslatef(-1.0f, -2.0f, -10.0f);
		glMaterialfv(GL_FRONT, GL_AMBIENT, material11_ambient);
		glMaterialfv(GL_FRONT, GL_DIFFUSE, material11_diffuse);
		glMaterialfv(GL_FRONT, GL_SPECULAR, material11_specular);
		glMaterialfv(GL_FRONT, GL_SHININESS, material11_shine);



		glPolygonMode(GL_FRONT_AND_BACK, GL_FILL);
		gluSphere(quadric, 0.45, 30, 30);
		//

		//
		//glMatrixMode(GL_MODELVIEW);
		glLoadIdentity();

		glTranslatef(-1.0f, -3.2f, -10.0f);
		glMaterialfv(GL_FRONT, GL_AMBIENT, material12_ambient);
		glMaterialfv(GL_FRONT, GL_DIFFUSE, material12_diffuse);
		glMaterialfv(GL_FRONT, GL_SPECULAR, material12_specular);
		glMaterialfv(GL_FRONT, GL_SHININESS, material12_shine);


		glPolygonMode(GL_FRONT_AND_BACK, GL_FILL);
		gluSphere(quadric, 0.45, 30, 30);
		//

		////row 1: 3
		//
		//glMatrixMode(GL_MODELVIEW);
		glLoadIdentity();

		glTranslatef(1.0f, 3.0f, -10.0f);

		glMaterialfv(GL_FRONT, GL_AMBIENT, material13_ambient);
		glMaterialfv(GL_FRONT, GL_DIFFUSE, material13_diffuse);
		glMaterialfv(GL_FRONT, GL_SPECULAR, material13_specular);
		glMaterialfv(GL_FRONT, GL_SHININESS, material13_shine);


		glPolygonMode(GL_FRONT_AND_BACK, GL_FILL);
		gluSphere(quadric, 0.45, 30, 30);
		//

		//
		//glMatrixMode(GL_MODELVIEW);
		glLoadIdentity();

		glTranslatef(1.0f, 1.8f, -10.0f);

		glMaterialfv(GL_FRONT, GL_AMBIENT, material14_ambient);
		glMaterialfv(GL_FRONT, GL_DIFFUSE, material14_diffuse);
		glMaterialfv(GL_FRONT, GL_SPECULAR, material14_specular);
		glMaterialfv(GL_FRONT, GL_SHININESS, material14_shine);

		glPolygonMode(GL_FRONT_AND_BACK, GL_FILL);
		gluSphere(quadric, 0.45, 30, 30);
		//

		//
		//glMatrixMode(GL_MODELVIEW);
		glLoadIdentity();

		glTranslatef(1.0f, 0.6f, -10.0f);


		glMaterialfv(GL_FRONT, GL_AMBIENT, material15_ambient);
		glMaterialfv(GL_FRONT, GL_DIFFUSE, material15_diffuse);
		glMaterialfv(GL_FRONT, GL_SPECULAR, material15_specular);
		glMaterialfv(GL_FRONT, GL_SHININESS, material15_shine);

		glPolygonMode(GL_FRONT_AND_BACK, GL_FILL);
		gluSphere(quadric, 0.45, 30, 30);
		//

		//
		//glMatrixMode(GL_MODELVIEW);
		glLoadIdentity();

		glTranslatef(1.0f, -0.8f, -10.0f);


		glMaterialfv(GL_FRONT, GL_AMBIENT, material16_ambient);
		glMaterialfv(GL_FRONT, GL_DIFFUSE, material16_diffuse);
		glMaterialfv(GL_FRONT, GL_SPECULAR, material16_specular);
		glMaterialfv(GL_FRONT, GL_SHININESS, material16_shine);


		glPolygonMode(GL_FRONT_AND_BACK, GL_FILL);
		gluSphere(quadric, 0.45, 30, 30);
		//

		//
		//glMatrixMode(GL_MODELVIEW);
		glLoadIdentity();

		glTranslatef(1.0f, -2.0f, -10.0f);

		glMaterialfv(GL_FRONT, GL_AMBIENT, material17_ambient);
		glMaterialfv(GL_FRONT, GL_DIFFUSE, material17_diffuse);
		glMaterialfv(GL_FRONT, GL_SPECULAR, material17_specular);
		glMaterialfv(GL_FRONT, GL_SHININESS, material17_shine);


		glPolygonMode(GL_FRONT_AND_BACK, GL_FILL);
		gluSphere(quadric, 0.45, 30, 30);
		//

		//
		//glMatrixMode(GL_MODELVIEW);
		glLoadIdentity();

		glTranslatef(1.0f, -3.2f, -10.0f);

		glMaterialfv(GL_FRONT, GL_AMBIENT, material18_ambient);
		glMaterialfv(GL_FRONT, GL_DIFFUSE, material18_diffuse);
		glMaterialfv(GL_FRONT, GL_SPECULAR, material18_specular);
		glMaterialfv(GL_FRONT, GL_SHININESS, material18_shine);


		glPolygonMode(GL_FRONT_AND_BACK, GL_FILL);
		gluSphere(quadric, 0.45, 30, 30);
		//

		////row 1: 4
		//
		//glMatrixMode(GL_MODELVIEW);
		glLoadIdentity();

		glTranslatef(3.0f, 3.0f, -10.0f);

		glMaterialfv(GL_FRONT, GL_AMBIENT, material19_ambient);
		glMaterialfv(GL_FRONT, GL_DIFFUSE, material19_diffuse);
		glMaterialfv(GL_FRONT, GL_SPECULAR, material19_specular);
		glMaterialfv(GL_FRONT, GL_SHININESS, material19_shine);

		glPolygonMode(GL_FRONT_AND_BACK, GL_FILL);
		gluSphere(quadric, 0.45, 30, 30);
		//

		//
		//glMatrixMode(GL_MODELVIEW);
		glLoadIdentity();

		glTranslatef(3.0f, 1.8f, -10.0f);
		glMaterialfv(GL_FRONT, GL_AMBIENT, material20_ambient);
		glMaterialfv(GL_FRONT, GL_DIFFUSE, material20_diffuse);
		glMaterialfv(GL_FRONT, GL_SPECULAR, material20_specular);
		glMaterialfv(GL_FRONT, GL_SHININESS, material20_shine);


		glPolygonMode(GL_FRONT_AND_BACK, GL_FILL);
		gluSphere(quadric, 0.45, 30, 30);
		//

		//
		//glMatrixMode(GL_MODELVIEW);
		glLoadIdentity();

		glTranslatef(3.0f, 0.6f, -10.0f);

		glMaterialfv(GL_FRONT, GL_AMBIENT, material21_ambient);
		glMaterialfv(GL_FRONT, GL_DIFFUSE, material21_diffuse);
		glMaterialfv(GL_FRONT, GL_SPECULAR, material21_specular);
		glMaterialfv(GL_FRONT, GL_SHININESS, material21_shine);


		glPolygonMode(GL_FRONT_AND_BACK, GL_FILL);
		gluSphere(quadric, 0.45, 30, 30);
		//

		//
		//glMatrixMode(GL_MODELVIEW);
		glLoadIdentity();

		glTranslatef(3.0f, -0.8f, -10.0f);

		glMaterialfv(GL_FRONT, GL_AMBIENT, material22_ambient);
		glMaterialfv(GL_FRONT, GL_DIFFUSE, material22_diffuse);
		glMaterialfv(GL_FRONT, GL_SPECULAR, material22_specular);
		glMaterialfv(GL_FRONT, GL_SHININESS, material22_shine);


		glPolygonMode(GL_FRONT_AND_BACK, GL_FILL);
		gluSphere(quadric, 0.45, 30, 30);
		//

		//
		//glMatrixMode(GL_MODELVIEW);
		glLoadIdentity();

		glTranslatef(3.0f, -2.0f, -10.0f);

		glMaterialfv(GL_FRONT, GL_AMBIENT, material23_ambient);
		glMaterialfv(GL_FRONT, GL_DIFFUSE, material23_diffuse);
		glMaterialfv(GL_FRONT, GL_SPECULAR, material23_specular);
		glMaterialfv(GL_FRONT, GL_SHININESS, material23_shine);

		glPolygonMode(GL_FRONT_AND_BACK, GL_FILL);
		gluSphere(quadric, 0.45, 30, 30);
		//

		//
		//glMatrixMode(GL_MODELVIEW);
		glLoadIdentity();

		glTranslatef(3.0f, -3.2f, -10.0f);

		glMaterialfv(GL_FRONT, GL_AMBIENT, material24_ambient);
		glMaterialfv(GL_FRONT, GL_DIFFUSE, material24_diffuse);
		glMaterialfv(GL_FRONT, GL_SPECULAR, material24_specular);
		glMaterialfv(GL_FRONT, GL_SHININESS, material24_shine);

		glPolygonMode(GL_FRONT_AND_BACK, GL_FILL);
		gluSphere(quadric, 0.45, 30, 30);
//		
//		
	}
	//// y rotation
	if (gbYVariable == 1)
	{
		//
		gluLookAt(0.0f, 0.0f, 1.0f, 0.0f, 0.0f, 0.0f, 0.0f, 1.0f, 0.0f);
		//
		glLoadIdentity();
		glRotatef(angleForGlobalLight, 0.0f, 1.0f, 1.0f);
		light0_position[1] = angleForGlobalLight;
		glLightfv(GL_LIGHT0, GL_POSITION, light0_position);
		//
		//row 1: 1
		//
		glLoadIdentity();
		glTranslatef(-3.0f, 3.0f, -10.0f);
		glMaterialfv(GL_FRONT, GL_AMBIENT, material_ambient);
		glMaterialfv(GL_FRONT, GL_DIFFUSE, material_diffuse);
		glMaterialfv(GL_FRONT, GL_SPECULAR, material_specular);
		glMaterialfv(GL_FRONT, GL_SHININESS, material_shine);

		glPolygonMode(GL_FRONT_AND_BACK, GL_FILL);
		gluSphere(quadric, 0.45, 30, 30);
		//

		//
		glLoadIdentity();
		glTranslatef(-3.0f, 1.8f, -10.0f);
		glMaterialfv(GL_FRONT, GL_AMBIENT, material2_ambient);
		glMaterialfv(GL_FRONT, GL_DIFFUSE, material2_diffuse);
		glMaterialfv(GL_FRONT, GL_SPECULAR, material2_specular);
		glMaterialfv(GL_FRONT, GL_SHININESS, material2_shine);


		glPolygonMode(GL_FRONT_AND_BACK, GL_FILL);
		gluSphere(quadric, 0.45, 30, 30);
		/*

		*/
		glLoadIdentity();
		glTranslatef(-3.0f, 0.6f, -10.0f);
		glMaterialfv(GL_FRONT, GL_AMBIENT, material3_ambient);
		glMaterialfv(GL_FRONT, GL_DIFFUSE, material3_diffuse);
		glMaterialfv(GL_FRONT, GL_SPECULAR, material3_specular);
		glMaterialfv(GL_FRONT, GL_SHININESS, material3_shine);


		glPolygonMode(GL_FRONT_AND_BACK, GL_FILL);
		gluSphere(quadric, 0.45, 30, 30);
		/*

		
		*/
		glLoadIdentity();
		glTranslatef(-3.0f, -0.8f, -10.0f);
		glMaterialfv(GL_FRONT, GL_AMBIENT, material4_ambient);
		glMaterialfv(GL_FRONT, GL_DIFFUSE, material4_diffuse);
		glMaterialfv(GL_FRONT, GL_SPECULAR, material4_specular);
		glMaterialfv(GL_FRONT, GL_SHININESS, material4_shine);


		glPolygonMode(GL_FRONT_AND_BACK, GL_FILL);
		gluSphere(quadric, 0.45, 30, 30);
		//

		//
		glLoadIdentity();
		glTranslatef(-3.0f, -2.0f, -10.0f);
		glMaterialfv(GL_FRONT, GL_AMBIENT, material5_ambient);
		glMaterialfv(GL_FRONT, GL_DIFFUSE, material5_diffuse);
		glMaterialfv(GL_FRONT, GL_SPECULAR, material5_specular);
		glMaterialfv(GL_FRONT, GL_SHININESS, material5_shine);


		glPolygonMode(GL_FRONT_AND_BACK, GL_FILL);
		gluSphere(quadric, 0.45, 30, 30);
		

		//
		glLoadIdentity();
		glTranslatef(-3.0f, -3.2f, -10.0f);

		glMaterialfv(GL_FRONT, GL_AMBIENT, material6_ambient);
		glMaterialfv(GL_FRONT, GL_DIFFUSE, material6_diffuse);
		glMaterialfv(GL_FRONT, GL_SPECULAR, material6_specular);
		glMaterialfv(GL_FRONT, GL_SHININESS, material6_shine);



		glPolygonMode(GL_FRONT_AND_BACK, GL_FILL);
		gluSphere(quadric, 0.45, 30, 30);
		//

		//row 1: 2
		//
		glLoadIdentity();
		glTranslatef(-1.0f, 3.0f, -10.0f);
		glMaterialfv(GL_FRONT, GL_AMBIENT, material7_ambient);
		glMaterialfv(GL_FRONT, GL_DIFFUSE, material7_diffuse);
		glMaterialfv(GL_FRONT, GL_SPECULAR, material7_specular);
		glMaterialfv(GL_FRONT, GL_SHININESS, material7_shine);


		glPolygonMode(GL_FRONT_AND_BACK, GL_FILL);
		gluSphere(quadric, 0.45, 30, 30);
		//

		//
		glLoadIdentity();
		glTranslatef(-1.0f, 1.8f, -10.0f);

		glMaterialfv(GL_FRONT, GL_AMBIENT, material8_ambient);
		glMaterialfv(GL_FRONT, GL_DIFFUSE, material8_diffuse);
		glMaterialfv(GL_FRONT, GL_SPECULAR, material8_specular);
		glMaterialfv(GL_FRONT, GL_SHININESS, material8_shine);


		glPolygonMode(GL_FRONT_AND_BACK, GL_FILL);
		gluSphere(quadric, 0.45, 30, 30);
		//

		//
		glLoadIdentity();
		glTranslatef(-1.0f, 0.6f, -10.0f);

		glMaterialfv(GL_FRONT, GL_AMBIENT, material9_ambient);
		glMaterialfv(GL_FRONT, GL_DIFFUSE, material9_diffuse);
		glMaterialfv(GL_FRONT, GL_SPECULAR, material9_specular);
		glMaterialfv(GL_FRONT, GL_SHININESS, material9_shine);


		glPolygonMode(GL_FRONT_AND_BACK, GL_FILL);
		gluSphere(quadric, 0.45, 30, 30);
		//

		//
		glLoadIdentity();
		glTranslatef(-1.0f, -0.8f, -10.0f);

		glMaterialfv(GL_FRONT, GL_AMBIENT, material10_ambient);
		glMaterialfv(GL_FRONT, GL_DIFFUSE, material10_diffuse);
		glMaterialfv(GL_FRONT, GL_SPECULAR, material10_specular);
		glMaterialfv(GL_FRONT, GL_SHININESS, material10_shine);



		glPolygonMode(GL_FRONT_AND_BACK, GL_FILL);
		gluSphere(quadric, 0.45, 30, 30);
		//

		//
		glLoadIdentity();
		glTranslatef(-1.0f, -2.0f, -10.0f);
		glMaterialfv(GL_FRONT, GL_AMBIENT, material11_ambient);
		glMaterialfv(GL_FRONT, GL_DIFFUSE, material11_diffuse);
		glMaterialfv(GL_FRONT, GL_SPECULAR, material11_specular);
		glMaterialfv(GL_FRONT, GL_SHININESS, material11_shine);



		glPolygonMode(GL_FRONT_AND_BACK, GL_FILL);
		gluSphere(quadric, 0.45, 30, 30);
		//

		//
		glLoadIdentity();
		glTranslatef(-1.0f, -3.2f, -10.0f);
		glMaterialfv(GL_FRONT, GL_AMBIENT, material12_ambient);
		glMaterialfv(GL_FRONT, GL_DIFFUSE, material12_diffuse);
		glMaterialfv(GL_FRONT, GL_SPECULAR, material12_specular);
		glMaterialfv(GL_FRONT, GL_SHININESS, material12_shine);


		glPolygonMode(GL_FRONT_AND_BACK, GL_FILL);
		gluSphere(quadric, 0.45, 30, 30);
		//

		//row 1: 3
		//
		glLoadIdentity();
		glTranslatef(1.0f, 3.0f, -10.0f);

		glMaterialfv(GL_FRONT, GL_AMBIENT, material13_ambient);
		glMaterialfv(GL_FRONT, GL_DIFFUSE, material13_diffuse);
		glMaterialfv(GL_FRONT, GL_SPECULAR, material13_specular);
		glMaterialfv(GL_FRONT, GL_SHININESS, material13_shine);


		glPolygonMode(GL_FRONT_AND_BACK, GL_FILL);
		gluSphere(quadric, 0.45, 30, 30);
		//

		//
		glLoadIdentity();
		glTranslatef(1.0f, 1.8f, -10.0f);

		glMaterialfv(GL_FRONT, GL_AMBIENT, material14_ambient);
		glMaterialfv(GL_FRONT, GL_DIFFUSE, material14_diffuse);
		glMaterialfv(GL_FRONT, GL_SPECULAR, material14_specular);
		glMaterialfv(GL_FRONT, GL_SHININESS, material14_shine);

		glPolygonMode(GL_FRONT_AND_BACK, GL_FILL);
		gluSphere(quadric, 0.45, 30, 30);
		//

		//
		glLoadIdentity();
		glTranslatef(1.0f, 0.6f, -10.0f);


		glMaterialfv(GL_FRONT, GL_AMBIENT, material15_ambient);
		glMaterialfv(GL_FRONT, GL_DIFFUSE, material15_diffuse);
		glMaterialfv(GL_FRONT, GL_SPECULAR, material15_specular);
		glMaterialfv(GL_FRONT, GL_SHININESS, material15_shine);

		glPolygonMode(GL_FRONT_AND_BACK, GL_FILL);
		gluSphere(quadric, 0.45, 30, 30);
		//

		//
		glLoadIdentity();
		glTranslatef(1.0f, -0.8f, -10.0f);


		glMaterialfv(GL_FRONT, GL_AMBIENT, material16_ambient);
		glMaterialfv(GL_FRONT, GL_DIFFUSE, material16_diffuse);
		glMaterialfv(GL_FRONT, GL_SPECULAR, material16_specular);
		glMaterialfv(GL_FRONT, GL_SHININESS, material16_shine);


		glPolygonMode(GL_FRONT_AND_BACK, GL_FILL);
		gluSphere(quadric, 0.45, 30, 30);
		//

		//
		glLoadIdentity();
		glTranslatef(1.0f, -2.0f, -10.0f);

		glMaterialfv(GL_FRONT, GL_AMBIENT, material17_ambient);
		glMaterialfv(GL_FRONT, GL_DIFFUSE, material17_diffuse);
		glMaterialfv(GL_FRONT, GL_SPECULAR, material17_specular);
		glMaterialfv(GL_FRONT, GL_SHININESS, material17_shine);


		glPolygonMode(GL_FRONT_AND_BACK, GL_FILL);
		gluSphere(quadric, 0.45, 30, 30);
		//

		//
		glLoadIdentity();
		glTranslatef(1.0f, -3.2f, -10.0f);

		glMaterialfv(GL_FRONT, GL_AMBIENT, material18_ambient);
		glMaterialfv(GL_FRONT, GL_DIFFUSE, material18_diffuse);
		glMaterialfv(GL_FRONT, GL_SPECULAR, material18_specular);
		glMaterialfv(GL_FRONT, GL_SHININESS, material18_shine);


		glPolygonMode(GL_FRONT_AND_BACK, GL_FILL);
		gluSphere(quadric, 0.45, 30, 30);
		//

		//row 1: 4
		//
		glLoadIdentity();
		glTranslatef(3.0f, 3.0f, -10.0f);

		glMaterialfv(GL_FRONT, GL_AMBIENT, material19_ambient);
		glMaterialfv(GL_FRONT, GL_DIFFUSE, material19_diffuse);
		glMaterialfv(GL_FRONT, GL_SPECULAR, material19_specular);
		glMaterialfv(GL_FRONT, GL_SHININESS, material19_shine);

		glPolygonMode(GL_FRONT_AND_BACK, GL_FILL);
		gluSphere(quadric, 0.45, 30, 30);
		//

		//
		glLoadIdentity();
		glTranslatef(3.0f, 1.8f, -10.0f);
		glMaterialfv(GL_FRONT, GL_AMBIENT, material20_ambient);
		glMaterialfv(GL_FRONT, GL_DIFFUSE, material20_diffuse);
		glMaterialfv(GL_FRONT, GL_SPECULAR, material20_specular);
		glMaterialfv(GL_FRONT, GL_SHININESS, material20_shine);


		glPolygonMode(GL_FRONT_AND_BACK, GL_FILL);
		gluSphere(quadric, 0.45, 30, 30);
		//

		//
		glLoadIdentity();
		glTranslatef(3.0f, 0.6f, -10.0f);

		glMaterialfv(GL_FRONT, GL_AMBIENT, material21_ambient);
		glMaterialfv(GL_FRONT, GL_DIFFUSE, material21_diffuse);
		glMaterialfv(GL_FRONT, GL_SPECULAR, material21_specular);
		glMaterialfv(GL_FRONT, GL_SHININESS, material21_shine);


		glPolygonMode(GL_FRONT_AND_BACK, GL_FILL);
		gluSphere(quadric, 0.45, 30, 30);
		//

		//
		glLoadIdentity();
		glTranslatef(3.0f, -0.8f, -10.0f);

		glMaterialfv(GL_FRONT, GL_AMBIENT, material22_ambient);
		glMaterialfv(GL_FRONT, GL_DIFFUSE, material22_diffuse);
		glMaterialfv(GL_FRONT, GL_SPECULAR, material22_specular);
		glMaterialfv(GL_FRONT, GL_SHININESS, material22_shine);


		glPolygonMode(GL_FRONT_AND_BACK, GL_FILL);
		gluSphere(quadric, 0.45, 30, 30);
		//

		//
		glLoadIdentity();
		glTranslatef(3.0f, -2.0f, -10.0f);

		glMaterialfv(GL_FRONT, GL_AMBIENT, material23_ambient);
		glMaterialfv(GL_FRONT, GL_DIFFUSE, material23_diffuse);
		glMaterialfv(GL_FRONT, GL_SPECULAR, material23_specular);
		glMaterialfv(GL_FRONT, GL_SHININESS, material23_shine);

		glPolygonMode(GL_FRONT_AND_BACK, GL_FILL);
		gluSphere(quadric, 0.45, 30, 30);
		//

		//
		glLoadIdentity();
		glTranslatef(3.0f, -3.2f, -10.0f);

		glMaterialfv(GL_FRONT, GL_AMBIENT, material24_ambient);
		glMaterialfv(GL_FRONT, GL_DIFFUSE, material24_diffuse);
		glMaterialfv(GL_FRONT, GL_SPECULAR, material24_specular);
		glMaterialfv(GL_FRONT, GL_SHININESS, material24_shine);

		glPolygonMode(GL_FRONT_AND_BACK, GL_FILL);
		gluSphere(quadric, 0.45, 30, 30);
		//
		
	}

	////// z rotation
	if (gbZVariable == 1)
	{
//		
		gluLookAt(0.0f, 0.0f, 1.0f, 0.0f, 0.0f, 0.0f, 0.0f, 1.0f, 0.0f);
	//	
		glLoadIdentity();
		glRotatef(angleForGlobalLight, 0.0f, 0.0f, 1.0f);
		light0_position[1] = angleForGlobalLight;
		glLightfv(GL_LIGHT0, GL_POSITION, light0_position);
		//
		//row 1: 1
		//
		glLoadIdentity();
		glTranslatef(-3.0f, 3.0f, -10.0f);
		glMaterialfv(GL_FRONT, GL_AMBIENT, material_ambient);
		glMaterialfv(GL_FRONT, GL_DIFFUSE, material_diffuse);
		glMaterialfv(GL_FRONT, GL_SPECULAR, material_specular);
		glMaterialfv(GL_FRONT, GL_SHININESS, material_shine);

		glPolygonMode(GL_FRONT_AND_BACK, GL_FILL);
		gluSphere(quadric, 0.45, 30, 30);
		//

		//
		glLoadIdentity();
		glTranslatef(-3.0f, 1.8f, -10.0f);
		glMaterialfv(GL_FRONT, GL_AMBIENT, material2_ambient);
		glMaterialfv(GL_FRONT, GL_DIFFUSE, material2_diffuse);
		glMaterialfv(GL_FRONT, GL_SPECULAR, material2_specular);
		glMaterialfv(GL_FRONT, GL_SHININESS, material2_shine);


		glPolygonMode(GL_FRONT_AND_BACK, GL_FILL);
		gluSphere(quadric, 0.45, 30, 30);
		//

		//
		glLoadIdentity();
		glTranslatef(-3.0f, 0.6f, -10.0f);
		glMaterialfv(GL_FRONT, GL_AMBIENT, material3_ambient);
		glMaterialfv(GL_FRONT, GL_DIFFUSE, material3_diffuse);
		glMaterialfv(GL_FRONT, GL_SPECULAR, material3_specular);
		glMaterialfv(GL_FRONT, GL_SHININESS, material3_shine);


		glPolygonMode(GL_FRONT_AND_BACK, GL_FILL);
		gluSphere(quadric, 0.45, 30, 30);
		//

		//
		glLoadIdentity();
		glTranslatef(-3.0f, -0.8f, -10.0f);
		glMaterialfv(GL_FRONT, GL_AMBIENT, material4_ambient);
		glMaterialfv(GL_FRONT, GL_DIFFUSE, material4_diffuse);
		glMaterialfv(GL_FRONT, GL_SPECULAR, material4_specular);
		glMaterialfv(GL_FRONT, GL_SHININESS, material4_shine);


		glPolygonMode(GL_FRONT_AND_BACK, GL_FILL);
		gluSphere(quadric, 0.45, 30, 30);
		//

		//
		glLoadIdentity();
		glTranslatef(-3.0f, -2.0f, -10.0f);
		glMaterialfv(GL_FRONT, GL_AMBIENT, material5_ambient);
		glMaterialfv(GL_FRONT, GL_DIFFUSE, material5_diffuse);
		glMaterialfv(GL_FRONT, GL_SPECULAR, material5_specular);
		glMaterialfv(GL_FRONT, GL_SHININESS, material5_shine);


		glPolygonMode(GL_FRONT_AND_BACK, GL_FILL);
		gluSphere(quadric, 0.45, 30, 30);
		//

		//
		glLoadIdentity();
		glTranslatef(-3.0f, -3.2f, -10.0f);

		glMaterialfv(GL_FRONT, GL_AMBIENT, material6_ambient);
		glMaterialfv(GL_FRONT, GL_DIFFUSE, material6_diffuse);
		glMaterialfv(GL_FRONT, GL_SPECULAR, material6_specular);
		glMaterialfv(GL_FRONT, GL_SHININESS, material6_shine);



		glPolygonMode(GL_FRONT_AND_BACK, GL_FILL);
		gluSphere(quadric, 0.45, 30, 30);
		
		//row 1: 2
		glLoadIdentity();
		glTranslatef(-1.0f, 3.0f, -10.0f);
		glMaterialfv(GL_FRONT, GL_AMBIENT, material7_ambient);
		glMaterialfv(GL_FRONT, GL_DIFFUSE, material7_diffuse);
		glMaterialfv(GL_FRONT, GL_SPECULAR, material7_specular);
		glMaterialfv(GL_FRONT, GL_SHININESS, material7_shine);


		glPolygonMode(GL_FRONT_AND_BACK, GL_FILL);
		gluSphere(quadric, 0.45, 30, 30);
		//

		//
		glLoadIdentity();
		glTranslatef(-1.0f, 1.8f, -10.0f);

		glMaterialfv(GL_FRONT, GL_AMBIENT, material8_ambient);
		glMaterialfv(GL_FRONT, GL_DIFFUSE, material8_diffuse);
		glMaterialfv(GL_FRONT, GL_SPECULAR, material8_specular);
		glMaterialfv(GL_FRONT, GL_SHININESS, material8_shine);


		glPolygonMode(GL_FRONT_AND_BACK, GL_FILL);
		gluSphere(quadric, 0.45, 30, 30);
		//

		//
		glLoadIdentity();
		glTranslatef(-1.0f, 0.6f, -10.0f);

		glMaterialfv(GL_FRONT, GL_AMBIENT, material9_ambient);
		glMaterialfv(GL_FRONT, GL_DIFFUSE, material9_diffuse);
		glMaterialfv(GL_FRONT, GL_SPECULAR, material9_specular);
		glMaterialfv(GL_FRONT, GL_SHININESS, material9_shine);


		glPolygonMode(GL_FRONT_AND_BACK, GL_FILL);
		gluSphere(quadric, 0.45, 30, 30);
		//

		//
		glLoadIdentity();
		glTranslatef(-1.0f, -0.8f, -10.0f);

		glMaterialfv(GL_FRONT, GL_AMBIENT, material10_ambient);
		glMaterialfv(GL_FRONT, GL_DIFFUSE, material10_diffuse);
		glMaterialfv(GL_FRONT, GL_SPECULAR, material10_specular);
		glMaterialfv(GL_FRONT, GL_SHININESS, material10_shine);



		glPolygonMode(GL_FRONT_AND_BACK, GL_FILL);
		gluSphere(quadric, 0.45, 30, 30);
		//

		//
		glLoadIdentity();
		glTranslatef(-1.0f, -2.0f, -10.0f);
		glMaterialfv(GL_FRONT, GL_AMBIENT, material11_ambient);
		glMaterialfv(GL_FRONT, GL_DIFFUSE, material11_diffuse);
		glMaterialfv(GL_FRONT, GL_SPECULAR, material11_specular);
		glMaterialfv(GL_FRONT, GL_SHININESS, material11_shine);



		glPolygonMode(GL_FRONT_AND_BACK, GL_FILL);
		gluSphere(quadric, 0.45, 30, 30);
		//

		//
		glLoadIdentity();
		glTranslatef(-1.0f, -3.2f, -10.0f);
		glMaterialfv(GL_FRONT, GL_AMBIENT, material12_ambient);
		glMaterialfv(GL_FRONT, GL_DIFFUSE, material12_diffuse);
		glMaterialfv(GL_FRONT, GL_SPECULAR, material12_specular);
		glMaterialfv(GL_FRONT, GL_SHININESS, material12_shine);


		glPolygonMode(GL_FRONT_AND_BACK, GL_FILL);
		gluSphere(quadric, 0.45, 30, 30);
		//

		//row 1: 3
		//
		glLoadIdentity();
		glTranslatef(1.0f, 3.0f, -10.0f);

		glMaterialfv(GL_FRONT, GL_AMBIENT, material13_ambient);
		glMaterialfv(GL_FRONT, GL_DIFFUSE, material13_diffuse);
		glMaterialfv(GL_FRONT, GL_SPECULAR, material13_specular);
		glMaterialfv(GL_FRONT, GL_SHININESS, material13_shine);


		glPolygonMode(GL_FRONT_AND_BACK, GL_FILL);
		gluSphere(quadric, 0.45, 30, 30);
		//

		//
		glLoadIdentity();
		glTranslatef(1.0f, 1.8f, -10.0f);

		glMaterialfv(GL_FRONT, GL_AMBIENT, material14_ambient);
		glMaterialfv(GL_FRONT, GL_DIFFUSE, material14_diffuse);
		glMaterialfv(GL_FRONT, GL_SPECULAR, material14_specular);
		glMaterialfv(GL_FRONT, GL_SHININESS, material14_shine);

		glPolygonMode(GL_FRONT_AND_BACK, GL_FILL);
		gluSphere(quadric, 0.45, 30, 30);
		//

		//
		glLoadIdentity();
		glTranslatef(1.0f, 0.6f, -10.0f);


		glMaterialfv(GL_FRONT, GL_AMBIENT, material15_ambient);
		glMaterialfv(GL_FRONT, GL_DIFFUSE, material15_diffuse);
		glMaterialfv(GL_FRONT, GL_SPECULAR, material15_specular);
		glMaterialfv(GL_FRONT, GL_SHININESS, material15_shine);

		glPolygonMode(GL_FRONT_AND_BACK, GL_FILL);
		gluSphere(quadric, 0.45, 30, 30);
		//

		//
		glLoadIdentity();
		glTranslatef(1.0f, -0.8f, -10.0f);


		glMaterialfv(GL_FRONT, GL_AMBIENT, material16_ambient);
		glMaterialfv(GL_FRONT, GL_DIFFUSE, material16_diffuse);
		glMaterialfv(GL_FRONT, GL_SPECULAR, material16_specular);
		glMaterialfv(GL_FRONT, GL_SHININESS, material16_shine);


		glPolygonMode(GL_FRONT_AND_BACK, GL_FILL);
		gluSphere(quadric, 0.45, 30, 30);
		//

		//
		glLoadIdentity();
		glTranslatef(1.0f, -2.0f, -10.0f);

		glMaterialfv(GL_FRONT, GL_AMBIENT, material17_ambient);
		glMaterialfv(GL_FRONT, GL_DIFFUSE, material17_diffuse);
		glMaterialfv(GL_FRONT, GL_SPECULAR, material17_specular);
		glMaterialfv(GL_FRONT, GL_SHININESS, material17_shine);


		glPolygonMode(GL_FRONT_AND_BACK, GL_FILL);
		gluSphere(quadric, 0.45, 30, 30);
		//

		//
		glLoadIdentity();
		glTranslatef(1.0f, -3.2f, -10.0f);

		glMaterialfv(GL_FRONT, GL_AMBIENT, material18_ambient);
		glMaterialfv(GL_FRONT, GL_DIFFUSE, material18_diffuse);
		glMaterialfv(GL_FRONT, GL_SPECULAR, material18_specular);
		glMaterialfv(GL_FRONT, GL_SHININESS, material18_shine);


		glPolygonMode(GL_FRONT_AND_BACK, GL_FILL);
		gluSphere(quadric, 0.45, 30, 30);
		//

		//row 1: 4
		//
		glLoadIdentity();
		glTranslatef(3.0f, 3.0f, -10.0f);

		glMaterialfv(GL_FRONT, GL_AMBIENT, material19_ambient);
		glMaterialfv(GL_FRONT, GL_DIFFUSE, material19_diffuse);
		glMaterialfv(GL_FRONT, GL_SPECULAR, material19_specular);
		glMaterialfv(GL_FRONT, GL_SHININESS, material19_shine);

		glPolygonMode(GL_FRONT_AND_BACK, GL_FILL);
		gluSphere(quadric, 0.45, 30, 30);
		//

		//
		glLoadIdentity();
		glTranslatef(3.0f, 1.8f, -10.0f);
		glMaterialfv(GL_FRONT, GL_AMBIENT, material20_ambient);
		glMaterialfv(GL_FRONT, GL_DIFFUSE, material20_diffuse);
		glMaterialfv(GL_FRONT, GL_SPECULAR, material20_specular);
		glMaterialfv(GL_FRONT, GL_SHININESS, material20_shine);


		glPolygonMode(GL_FRONT_AND_BACK, GL_FILL);
		gluSphere(quadric, 0.45, 30, 30);
		//

		//
		glLoadIdentity();
		glTranslatef(3.0f, 0.6f, -10.0f);

		glMaterialfv(GL_FRONT, GL_AMBIENT, material21_ambient);
		glMaterialfv(GL_FRONT, GL_DIFFUSE, material21_diffuse);
		glMaterialfv(GL_FRONT, GL_SPECULAR, material21_specular);
		glMaterialfv(GL_FRONT, GL_SHININESS, material21_shine);


		glPolygonMode(GL_FRONT_AND_BACK, GL_FILL);
		gluSphere(quadric, 0.45, 30, 30);
		//

		//
		glLoadIdentity();
		glTranslatef(3.0f, -0.8f, -10.0f);

		glMaterialfv(GL_FRONT, GL_AMBIENT, material22_ambient);
		glMaterialfv(GL_FRONT, GL_DIFFUSE, material22_diffuse);
		glMaterialfv(GL_FRONT, GL_SPECULAR, material22_specular);
		glMaterialfv(GL_FRONT, GL_SHININESS, material22_shine);


		glPolygonMode(GL_FRONT_AND_BACK, GL_FILL);
		gluSphere(quadric, 0.45, 30, 30);
		//

		//
		glLoadIdentity();
		glTranslatef(3.0f, -2.0f, -10.0f);

		glMaterialfv(GL_FRONT, GL_AMBIENT, material23_ambient);
		glMaterialfv(GL_FRONT, GL_DIFFUSE, material23_diffuse);
		glMaterialfv(GL_FRONT, GL_SPECULAR, material23_specular);
		glMaterialfv(GL_FRONT, GL_SHININESS, material23_shine);

		glPolygonMode(GL_FRONT_AND_BACK, GL_FILL);
		gluSphere(quadric, 0.45, 30, 30);

		//

		//
		glLoadIdentity();
		glTranslatef(3.0f, -3.2f, -10.0f);

		glMaterialfv(GL_FRONT, GL_AMBIENT, material24_ambient);
		glMaterialfv(GL_FRONT, GL_DIFFUSE, material24_diffuse);
		glMaterialfv(GL_FRONT, GL_SPECULAR, material24_specular);
		glMaterialfv(GL_FRONT, GL_SHININESS, material24_shine);

		glPolygonMode(GL_FRONT_AND_BACK, GL_FILL);
		gluSphere(quadric, 0.45, 30, 30);
		//
//		
	}

	SwapBuffers(ghdc);
}

void update(void)
{
	//code
	angleForGlobalLight = angleForGlobalLight + 0.04f;
	if (angleForGlobalLight >= 360.0f)
		angleForGlobalLight = 0.0f;
}

void resize(int width, int height)
{
	//code
	if (height == 0)
		height = 1;

	glViewport(0, 0, (GLsizei)width, (GLsizei)height);

	glMatrixMode(GL_PROJECTION);

	glLoadIdentity();

	gluPerspective(45.0f, (GLfloat)width / (GLfloat)height, 0.1f, 100.0f);               //(Left, Right, Bottom, Top, Near, Far)

}

void uninitialize(void)
{

	if (gbFullscreen == true)
	{
		dwStyle = GetWindowLong(ghwnd, GWL_STYLE);
		SetWindowLong(ghwnd, GWL_STYLE, dwStyle | WS_OVERLAPPEDWINDOW);
		SetWindowPlacement(ghwnd, &wpPrev);
		SetWindowPos(ghwnd, HWND_TOP, 0, 0, 0, 0, SWP_NOMOVE | SWP_NOSIZE | SWP_NOOWNERZORDER | SWP_NOZORDER | SWP_FRAMECHANGED);

		ShowCursor(TRUE);

	}

	wglMakeCurrent(NULL, NULL);

	wglDeleteContext(ghrc);
	ghrc = NULL;

	ReleaseDC(ghwnd, ghdc);
	ghdc = NULL;

	DestroyWindow(ghwnd);
	ghwnd = NULL;

	gluDeleteQuadric(quadric);
}

