// changes: 
// Added NORMAL glNormal(); 

#include <windows.h>
#include <gl/GL.h>
#include <gl/GLU.h>

#define WIN_WIDTH 800
#define WIN_HEIGHT 600

#pragma comment(lib,"opengl32.lib")
#pragma comment(lib,"glu32.lib")

LRESULT CALLBACK WndProc(HWND, UINT, WPARAM, LPARAM);

HWND ghwnd = NULL;
HDC ghdc = NULL;
HGLRC ghrc = NULL;

//
GLUquadric *quadric = NULL;
float  bPyramid = 1;
float  bCube = 0;
float  bSphere = 0;

DWORD dwStyle;
WINDOWPLACEMENT wpPrev = { sizeof(WINDOWPLACEMENT) };

bool gbActiveWindow = false;
bool gbEscapeKeyIsPressed = false;
bool gbFullscreen = false;
bool gbLight = false;
//variables for light 0
GLfloat light0_ambient[] = { 0.0f,0.0f,0.0f,0.0f };
GLfloat light0_diffuse[] = { 1.0f,0.0f,0.0f,0.0f };
GLfloat light0_specular[] = { 1.0f,0.0f,0.0f,0.0f };
GLfloat light0_position[] = { 2.0f,1.0f,1.0f,0.0f }; // as per instruction
//GLfloat light0_shine[] = { 50.0f,50.0f,50.0f };
//light 1

GLfloat light1_ambient[] = { 0.0f,0.0f,0.0f,0.0f };
GLfloat light1_diffuse[] = { 0.0f,0.0f,1.0f,0.0f };
GLfloat light1_specular[] = { 0.0f,0.0f,1.0f,0.0f };
GLfloat light1_position[] = { -2.0f,1.0f,1.0f,0.0f }; // as per instruction
//GLfloat light1_shine[] = { 50.0f,50.0f,50.0f };
//material
GLfloat material_ambient[] = { 0.0f,0.0f,0.0f };
GLfloat material_diffuse[] = { 1.0f,1.0f,1.0f,1.0f };
GLfloat material_specular[] = { 1.0f,1.0f,1.0f,1.0f };
GLfloat material_shine[] = { 50.0f,50.0f,50.0f };

GLfloat anglePyramid = 0.0f;
GLfloat angleCube = 0.0f;
GLfloat angleSphere = 0.0f;


int WINAPI WinMain(HINSTANCE hInstance, HINSTANCE hPrevInstance, LPSTR lpszCmdLine, int iCmdShow)
{

	void initialize(void);
	void uninitialize(void);
	void update(void);
	void display(void); //prototype for disp aas removed from wndproc

						//variable declaration
	WNDCLASSEX wndclass;
	HWND hwnd;
	MSG msg;
	TCHAR szClassName[] = TEXT("RTROGL");
	bool bDone = false;


	wndclass.cbSize = sizeof(WNDCLASSEX);
	wndclass.style = CS_HREDRAW | CS_VREDRAW | CS_OWNDC;
	wndclass.cbClsExtra = 0;
	wndclass.cbWndExtra = 0;
	wndclass.hInstance = hInstance;
	wndclass.hbrBackground = (HBRUSH)GetStockObject(BLACK_BRUSH);
	wndclass.hIcon = LoadIcon(NULL, IDI_APPLICATION);
	wndclass.hCursor = LoadCursor(NULL, IDC_ARROW);
	wndclass.hIconSm = LoadIcon(NULL, IDI_APPLICATION);
	wndclass.lpfnWndProc = WndProc;
	wndclass.lpszClassName = szClassName;
	wndclass.lpszMenuName = NULL;

	RegisterClassEx(&wndclass);
	//Create Window
	hwnd = CreateWindowEx(WS_EX_APPWINDOW,
		szClassName,
		TEXT("OpenGL Native Window + Triangle + gluPerspective Projection"),
		WS_OVERLAPPEDWINDOW | WS_CLIPCHILDREN | WS_CLIPSIBLINGS | WS_VISIBLE,
		0,
		0,
		WIN_WIDTH,
		WIN_HEIGHT,
		NULL,
		NULL,
		hInstance,
		NULL);

	ghwnd = hwnd;

	//initialize
	initialize();

	ShowWindow(hwnd, SW_SHOW);
	SetForegroundWindow(hwnd);
	SetFocus(hwnd);

	//Message Loop
	while (bDone == false)
	{
		if (PeekMessage(&msg, NULL, 0, 0, PM_REMOVE))
		{
			if (msg.message == WM_QUIT)
				bDone = true;
			else
			{
				TranslateMessage(&msg);
				DispatchMessage(&msg);
			}
		}
		else
		{
			if (gbActiveWindow == true)
			{
				if (gbEscapeKeyIsPressed == true)
					bDone = true;
			}
			update();
			display();//call to display in game loop
		}
	}

	uninitialize();
	return((int)msg.wParam);
}

//WndProc()
LRESULT CALLBACK WndProc(HWND hwnd, UINT iMsg, WPARAM wParam, LPARAM lParam)
{
	void resize(int, int);
	void ToggleFullscreen(void);
	void uninitialize(void);
	switch (iMsg)
	{
	case WM_ACTIVATE:
		if (HIWORD(wParam) == 0)
			gbActiveWindow = true;
		else
			gbActiveWindow = false;
		break;

	case WM_SIZE:
		resize(LOWORD(lParam), HIWORD(lParam));
		break;
	case WM_KEYDOWN:
		switch (wParam)
		{
		case VK_ESCAPE:
			gbEscapeKeyIsPressed = true;
			break;
		case 0x46: //for 'f' or 'F'
			if (gbFullscreen == false)
			{
				ToggleFullscreen();
				gbFullscreen = true;
			}
			else
			{
				ToggleFullscreen();
				gbFullscreen = false;
			}
			break;
		case 0x4c: //for l
			if (gbLight == false)
			{
				gbLight = true;
				glEnable(GL_LIGHTING);

			}
			else
			{
				gbLight = false;
				glDisable(GL_LIGHTING);
			}
			break;
			//--------------
		case 0x50:   //pyramid
			if (bPyramid == 1)
			{
				bPyramid = 1;
				bCube = 0;
				bSphere = 0;
				gbLight = true;
				glEnable(GL_LIGHTING);

			}
			else
			{

				bPyramid = 0;
				bCube = 1;
				bSphere = 0;
				gbLight = FALSE;
				glDisable(GL_LIGHTING);
			}
			break;

		case 0x43: //cube
			if (bCube == 1)
			{

				bPyramid = 0;
				bCube = 1;
				bSphere = 0;
				gbLight = true;
				glEnable(GL_LIGHTING);

			}
			else
			{
				bPyramid = 0;
				bCube = 0;
				bSphere = 1;

				gbLight = false;
				glDisable(GL_LIGHTING);
			}
			break;

		case 0x53: //sphere	{

			if (bSphere == 1)
			{

				bPyramid = 0;
				bCube = 0;
				bSphere = 1;
				gbLight = true;
				glEnable(GL_LIGHTING);

			}
			else
			{
				bPyramid = 1;
				bCube = 0;
				bSphere = 0;

				gbLight = false;
				glDisable(GL_LIGHTING);
			}

			break;

		default:
			break;
		}
		break;
	case WM_LBUTTONDOWN:
		break;
	case WM_DESTROY:
		PostQuitMessage(0);
		break;
	default:
		break;
	}
	return(DefWindowProc(hwnd, iMsg, wParam, lParam));
}

void ToggleFullscreen(void)
{

	MONITORINFO mi = { sizeof(MONITORINFO) };
	if (gbFullscreen == false)
	{
		dwStyle = GetWindowLong(ghwnd, GWL_STYLE);
		if (dwStyle & WS_OVERLAPPEDWINDOW)
		{

			if (GetWindowPlacement(ghwnd, &wpPrev) && GetMonitorInfo(MonitorFromWindow(ghwnd, MONITORINFOF_PRIMARY), &mi))
			{
				SetWindowLong(ghwnd, GWL_STYLE, dwStyle & ~WS_OVERLAPPEDWINDOW);
				SetWindowPos(ghwnd, HWND_TOP, mi.rcMonitor.left, mi.rcMonitor.top, mi.rcMonitor.right - mi.rcMonitor.left, mi.rcMonitor.bottom - mi.rcMonitor.top, SWP_NOZORDER | SWP_FRAMECHANGED);
			}
		}
		ShowCursor(FALSE);
	}

	else
	{
		SetWindowLong(ghwnd, GWL_STYLE, dwStyle | WS_OVERLAPPEDWINDOW);
		SetWindowPlacement(ghwnd, &wpPrev);
		SetWindowPos(ghwnd, HWND_TOP, 0, 0, 0, 0, SWP_NOMOVE | SWP_NOSIZE | SWP_NOOWNERZORDER | SWP_NOZORDER | SWP_FRAMECHANGED);

		ShowCursor(TRUE);
	}
}

void initialize(void)
{
	void resize(int, int);
	PIXELFORMATDESCRIPTOR pfd;
	int iPixelFormatIndex;
	quadric = gluNewQuadric();

	//code
	ZeroMemory(&pfd, sizeof(PIXELFORMATDESCRIPTOR));

	//Initialization of structure 'PIXELFORMATDESCRIPTOR'
	pfd.nSize = sizeof(PIXELFORMATDESCRIPTOR);
	pfd.nVersion = 1;
	pfd.dwFlags = PFD_DRAW_TO_WINDOW | PFD_SUPPORT_OPENGL | PFD_DOUBLEBUFFER;
	pfd.iPixelType = PFD_TYPE_RGBA;
	pfd.cColorBits = 32;
	pfd.cRedBits = 8;
	pfd.cGreenBits = 8;
	pfd.cBlueBits = 8;
	pfd.cAlphaBits = 8;

	ghdc = GetDC(ghwnd);

	iPixelFormatIndex = ChoosePixelFormat(ghdc, &pfd);
	if (iPixelFormatIndex == 0)
	{
		ReleaseDC(ghwnd, ghdc);
		ghdc = NULL;
	}

	if (SetPixelFormat(ghdc, iPixelFormatIndex, &pfd) == FALSE)
	{
		ReleaseDC(ghwnd, ghdc);
		ghdc = NULL;
	}

	ghrc = wglCreateContext(ghdc);
	if (ghrc == NULL)
	{
		ReleaseDC(ghwnd, ghdc);
		ghdc = NULL;
	}

	if (wglMakeCurrent(ghdc, ghrc) == FALSE)
	{
		wglDeleteContext(ghrc);
		ghrc = NULL;
		ReleaseDC(ghwnd, ghdc);
		ghdc = NULL;
	}

	glClearColor(0.0f, 0.0f, 0.0f, 0.0f);
	glClearDepth(1.0f);          // change no 3-4 for considering dept..2D to 3D conversion...

	glEnable(GL_DEPTH_TEST);
	glDepthFunc(GL_LEQUAL);

	//glEnable(GL_LIGHTING);
	glEnable(GL_LIGHT0);
	glLightfv(GL_LIGHT0, GL_AMBIENT, light0_ambient);
	glLightfv(GL_LIGHT0, GL_DIFFUSE, light0_diffuse);
	glLightfv(GL_LIGHT0, GL_SPECULAR, light0_specular);
	glLightfv(GL_LIGHT0, GL_POSITION, light0_position);

	//light1
	glEnable(GL_LIGHT1);
	glLightfv(GL_LIGHT1, GL_AMBIENT, light1_ambient);
	glLightfv(GL_LIGHT1, GL_DIFFUSE, light1_diffuse);
	glLightfv(GL_LIGHT1, GL_SPECULAR, light1_specular);
	glLightfv(GL_LIGHT1, GL_POSITION, light1_position);
	//material
	glMaterialfv(GL_FRONT, GL_AMBIENT, material_ambient);
	glMaterialfv(GL_FRONT, GL_DIFFUSE, material_diffuse);
	glMaterialfv(GL_FRONT, GL_SPECULAR, material_specular);
	glMaterialfv(GL_FRONT, GL_SHININESS, material_shine);


	resize(WIN_WIDTH, WIN_HEIGHT);
}

void display(void)
{
	glClear(GL_COLOR_BUFFER_BIT | GL_DEPTH_BUFFER_BIT);

	if (bPyramid == 1)
	{

		glMatrixMode(GL_MODELVIEW);
		glLoadIdentity();

		glTranslatef(-1.5f, 0.0f, -6.0f);
		glRotatef(anglePyramid, 0.0f, 1.0f, 0.0f);
		glBegin(GL_TRIANGLES);
		//FRONT                                                // change 5... Z value..depth value..based on this value depth wl be calculated
		// follow anti clock wise direction..RightTop->LT->LB->RB
		//glNormal3f(0.0f, 0.0f, 1.0f);
		glNormal3f(0.0f, 0.447214f, 0.894427f);
		glVertex3f(0.0f, 1.0f, 0.0f);
		glVertex3f(-1.0f, -1.0f, 1.0f);
		glVertex3f(1.0f, -1.0f, 1.0f);

		//RIGHT FACE

		//		glNormal3f(1.0f, 0.0f, 0.0f);
		glNormal3f(0.894427f, 0.447214f, 0.0f);

		glVertex3f(0.0f, 1.0f, 0.0f);
		glVertex3f(1.0f, -1.0f, 1.0f);
		glVertex3f(1.0f, -1.0f, -1.0f);

		//BACK FACE

		//glNormal3f(0.0f, 0.0f, -1.0f);
		glNormal3f(0.0f, 0.447214f, -0.894427f);
		glVertex3f(0.0f, 1.0f, 0.0f);
		glVertex3f(1.0f, -1.0f, -1.0f);
		glVertex3f(-1.0f, -1.0f, -1.0f);

		//LEFT FACE

		//		glNormal3f(-1.0f, 0.0f, 0.0f);
		glNormal3f(-0.894427f, 0.447214f, 0.0f);
		glVertex3f(0.0f, 1.0f, 0.0f);
		glVertex3f(-1.0f, -1.0f, -1.0f);
		glVertex3f(-1.0f, -1.0f, 1.0f);
		glEnd();
		//end of triangle---------------------------------------------------
	}
	//cube

	if (bCube == 1)
	{

		glMatrixMode(GL_MODELVIEW);
		glLoadIdentity();

		glTranslatef(1.5f, 0.0f, -6.0f);
		glScaled(0.75f, 0.75f, 0.75f);
		glRotatef(angleCube, 0.0f, 1.0f, 0.0f);

		glBegin(GL_QUADS);

		//TOP FACE
		glNormal3f(0.0f, 1.0f, 0.0f);

		glVertex3f(1.0f, 1.0f, -1.0f);  //right-top corner of top face
		glVertex3f(-1.0f, 1.0f, -1.0f); //left-top corner of top face
		glVertex3f(-1.0f, 1.0f, 1.0f); //left-bottom corner of top face
		glVertex3f(1.0f, 1.0f, 1.0f); //right-bottom corner of top face

									  //BOTTOM FACE

		glNormal3f(0.0f, -1.0f, 0.0f);

		glVertex3f(1.0f, -1.0f, -1.0f); //right-top corner of bottom face
		glVertex3f(-1.0f, -1.0f, -1.0f); //left-top corner of bottom face
		glVertex3f(-1.0f, -1.0f, 1.0f); //left-bottom corner of bottom face
		glVertex3f(1.0f, -1.0f, 1.0f); //right-bottom corner of bottom face

									   //FRONT FACE

		glNormal3f(0.0f, 0.0f, 1.0f);

		glVertex3f(1.0f, 1.0f, 1.0f); //right-top corner of front face
		glVertex3f(-1.0f, 1.0f, 1.0f); //left-top corner of front face
		glVertex3f(-1.0f, -1.0f, 1.0f); //left-bottom corner of front face
		glVertex3f(1.0f, -1.0f, 1.0f); //right-bottom corner of front face

									   //BACK FACE

		glNormal3f(0.0f, 0.0f, -1.0f);

		glVertex3f(1.0f, 1.0f, -1.0f); //right-top of back face
		glVertex3f(-1.0f, 1.0f, -1.0f); //left-top of back face
		glVertex3f(-1.0f, -1.0f, -1.0f); //left-bottom of back face
		glVertex3f(1.0f, -1.0f, -1.0f); //right-bottom of back face

										//RIGHT FACE

		glNormal3f(1.0f, 0.0f, 0.0f);

		glVertex3f(1.0f, 1.0f, -1.0f); //right-top of right face
		glVertex3f(1.0f, 1.0f, 1.0f); //left-top of right face
		glVertex3f(1.0f, -1.0f, 1.0f); //left-bottom of right face
		glVertex3f(1.0f, -1.0f, -1.0f); //right-bottom of right face

										//LEFT FACE
		glNormal3f(-1.0f, 0.0f, 0.0f);

		glVertex3f(-1.0f, 1.0f, 1.0f); //right-top of left face
		glVertex3f(-1.0f, 1.0f, -1.0f); //left-top of left face
		glVertex3f(-1.0f, -1.0f, -1.0f); //left-bottom of left face
		glVertex3f(-1.0f, -1.0f, 1.0f); //right-bottom of left face
		glEnd();
	}

	if (bSphere == 1)
	{
		glMatrixMode(GL_MODELVIEW);
		glLoadIdentity();
		glTranslatef(0.0f, 0.0f, -3.0f);
		glRotatef(angleSphere, 0.0f, 1.0f, 0.0f);

		//	glPolygonMode(GL_FRONT_AND_BACK, GL_LINE);
		gluSphere(quadric, 0.75, 30, 30);
	}
	SwapBuffers(ghdc);
}

void update(void)
{
	//code
	anglePyramid = anglePyramid + 0.008f;
	if (anglePyramid >= 360.0f)
		anglePyramid = 0.0f;

	angleCube = angleCube + 0.008f;
	if (angleCube >= 360.0f)
		angleCube = 0.0f;

	angleSphere = angleSphere + 0.008f;
	if (angleSphere >= 360.0f)
		angleSphere = 0.0f;
}

void resize(int width, int height)
{
	//code
	if (height == 0)
		height = 1;

	glViewport(0, 0, (GLsizei)width, (GLsizei)height);

	glMatrixMode(GL_PROJECTION);

	glLoadIdentity();

	gluPerspective(45.0f, (GLfloat)width / (GLfloat)height, 0.1f, 100.0f);               //(Left, Right, Bottom, Top, Near, Far)

}

void uninitialize(void)
{

	if (gbFullscreen == true)
	{
		dwStyle = GetWindowLong(ghwnd, GWL_STYLE);
		SetWindowLong(ghwnd, GWL_STYLE, dwStyle | WS_OVERLAPPEDWINDOW);
		SetWindowPlacement(ghwnd, &wpPrev);
		SetWindowPos(ghwnd, HWND_TOP, 0, 0, 0, 0, SWP_NOMOVE | SWP_NOSIZE | SWP_NOOWNERZORDER | SWP_NOZORDER | SWP_FRAMECHANGED);

		ShowCursor(TRUE);

	}

	wglMakeCurrent(NULL, NULL);

	wglDeleteContext(ghrc);
	ghrc = NULL;

	ReleaseDC(ghwnd, ghdc);
	ghdc = NULL;

	DestroyWindow(ghwnd);
	ghwnd = NULL;

	gluDeleteQuadric(quadric);
}

